intent,button,entities
swear,I feel unhappy!,
affirm,Yes!,
faq_company,FAQ,
weather,What is the weather?,
greet,Hi!,
bye,Bye!,
deny,No!,
help,Need help!,
stop,Stop!,
cleanwintemp,Clean Windows Temporary Files,
cleanlocaltemp,Clean Local Temporary Files,
Spooler-Queue-Reset,Reset Spooler Queue,
vpnissue,Solve VPN issues,
slowcomputer,Solve Slow Computer,
PrintServer-Reload,Reload Print Server,
pcvirus,Solve PC Virus,
passwordreset,Reset Password,
mappeddrive,Map Drive,
filerecovery,Recover Files,
emptyrecyclebin,Empty Recycle Bin,
DHCP-NIC-Refresh,DHCP NIC Refresh,
StartCleanup,Start Cleanup Process,
IpConfigRenew,Renew IP Configuration,
LowDiskSpace,Fix Low Dick Space,
DisableStartUps,Disable Startups,
ClearCacheCookies,Clear Cache and Cookies,
ResolvePrinterIssues,Resolve Printer Issue,
DiskCleanup,Clean my Drive,
UpdateDisplayDriver,Update Display Driver,
WinUpdates,Windows Updates,
MapNetworkDriveandVPN,Map Network Drives and VPN,
StopNotRespondingApps,Stop Not Responding Apps,
ScanHardware,Scan Hardware,

